     1                                  ;(a-2)/(b+c)+a*c+e-x
     2                                  ;a,b-byte; c-word; e-doubleword; x-qword
     3                                  bits 32 ; assembling for the 32 bits architecture
     4                                  
     5                                  ; declare the EntryPoint (a label defining the very first instruction of the program)
     6                                  global start        
     7                                  
     8                                  ; declare external functions needed by our program
     9                                  extern exit               ; tell nasm that exit exists even if we won't be defining it
    10                                  import exit msvcrt.dll    ; exit is a function that ends the calling process. It is defined in msvcrt.dll
    11                                                            ; msvcrt.dll contains exit, printf and all the other important C-runtime specific functions
    12                                  
    13                                  ; our data is declared here (the variables needed by our program)
    14                                  segment data use32 class=data
    15 00000000 03                          a db 3
    16 00000001 03                          b db 3
    17 00000002 0200                        c dw 2
    18 00000004 01000000                    e dd 1
    19 00000008 0500000000000000            x dq 5
    20                                  
    21                                  ; our code starts here
    22                                  segment code use32 class=code
    23                                      start:
    24 00000000 A0[00000000]                    mov AL, [a] ;AL = a
    25 00000005 2C02                            sub AL, 2 ;AL = a-2
    26                                          
    27 00000007 8A1D[01000000]                  mov BL, [b] ; BL = b
    28 0000000D B700                            mov BH, 0 ;BH = 0
    29                                          
    30 0000000F 66031D[02000000]                add BX, [c] ;BX = b+c
    31                                          
    32 00000016 66BA0000                        mov DX, 0 ;DX = 0
    33                                          
    34 0000001A 66F7F3                          div BX ;AX = DX:AX/ BX = (a-2)/(b+c)
    35                                          
    36 0000001D 6689C3                          mov BX, AX ;BX = AX
    37                                          
    38 00000020 A0[00000000]                    mov AL, [a] ;AL = a
    39 00000025 B400                            mov AH, 0 ;AH = 0
    40                                          
    41 00000027 66F725[02000000]                mul word [c] ;DX:AX = AX * c = a * c
    42                                          
    43 0000002E 6652                            push DX
    44 00000030 6650                            push AX
    45 00000032 5A                              pop EDX ;EDX = DX:AX = a*c
    46                                          
    47 00000033 6689D8                          mov AX, BX ;AX = BX
    48 00000036 66BA0000                        mov DX, 0 ;DX = 0
    49                                          
    50 0000003A 01D0                            add EAX, EDX ; EAX = EAX + EDX = (a-2)/(b+c) + a*c
    51                                          
    52 0000003C 0305[04000000]                  add EAX, [e]
    53                                          
    54 00000042 BA00000000                      mov EDX, 0
    55                                          
    56 00000047 2B05[08000000]                  sub EAX, [x]
    57 0000004D 1B15[0C000000]                  sbb EDX, [x+4]
    58                                          
    59                                          
    60                                          
    61                                      
    62                                          ; exit(0)
    63 00000053 6A00                            push    dword 0      ; push the parameter for exit onto the stack
    64 00000055 FF15[00000000]                  call    [exit]       ; call exit to terminate the program
